…
## # A tibble: 22 x 4
## # Groups:   categories.title [22]
##    categories.title Listings review_mean bin  
##    <chr>               <int>       <dbl> <fct>
##  1 Aquariums               2        126. 5    
##  2 Shopping Centers        2        106  5    
##  3 Sri Lankan              1         99  5    
##  4 Jewish                  2         80  5    
##  5 Tabletop Games          1         77  5    
##  6 Taiwanese               4         66  5    
##  7 Ukrainian               3         61  5    
##  8 Baden                   3         60  5    
##  9 Cajun/Creole            2         54  5    
## 10 Fondue                  3         54  5    
## # ... with 12 more rows
…
